
https://cdnjs.cloudflare.com/ajax/libs/twitter-bootstrap/5.3.0/css/bootstrap.min.css
https://cdnjs.cloudflare.com/ajax/libs/twitter-bootstrap/5.3.0/css/bootstrap.css
https://cdnjs.cloudflare.com/ajax/libs/twitter-bootstrap/5.3.0/js/bootstrap.bundle.min.js
https://cdnjs.cloudflare.com/ajax/libs/twitter-bootstrap/5.3.0/js/bootstrap.bundle.js

https://cdn.datatables.net/v/bs5/jq-3.7.0/jszip-3.10.1/dt-2.1.6/af-2.7.0/b-3.1.2/b-colvis-3.1.2/b-html5-3.1.2/b-print-3.1.2/cr-2.0.4/date-1.5.3/fc-5.0.1/fh-4.0.1/kt-2.12.1/r-3.0.3/rg-1.5.0/rr-1.5.0/sc-2.4.3/sb-1.8.0/sp-2.3.2/sl-2.0.5/sr-1.4.1/datatables.min.css
https://cdn.datatables.net/v/bs5/jq-3.7.0/jszip-3.10.1/dt-2.1.6/af-2.7.0/b-3.1.2/b-colvis-3.1.2/b-html5-3.1.2/b-print-3.1.2/cr-2.0.4/date-1.5.3/fc-5.0.1/fh-4.0.1/kt-2.12.1/r-3.0.3/rg-1.5.0/rr-1.5.0/sc-2.4.3/sb-1.8.0/sp-2.3.2/sl-2.0.5/sr-1.4.1/datatables.css

https://cdn.datatables.net/v/bs5/jq-3.7.0/jszip-3.10.1/dt-2.1.6/af-2.7.0/b-3.1.2/b-colvis-3.1.2/b-html5-3.1.2/b-print-3.1.2/cr-2.0.4/date-1.5.3/fc-5.0.1/fh-4.0.1/kt-2.12.1/r-3.0.3/rg-1.5.0/rr-1.5.0/sc-2.4.3/sb-1.8.0/sp-2.3.2/sl-2.0.5/sr-1.4.1/datatables.min.js
https://cdn.datatables.net/v/bs5/jq-3.7.0/jszip-3.10.1/dt-2.1.6/af-2.7.0/b-3.1.2/b-colvis-3.1.2/b-html5-3.1.2/b-print-3.1.2/cr-2.0.4/date-1.5.3/fc-5.0.1/fh-4.0.1/kt-2.12.1/r-3.0.3/rg-1.5.0/rr-1.5.0/sc-2.4.3/sb-1.8.0/sp-2.3.2/sl-2.0.5/sr-1.4.1/datatables.js

https://cdnjs.cloudflare.com/ajax/libs/select2-bootstrap-5-theme/1.3.0/select2-bootstrap-5-theme.min.css
https://cdnjs.cloudflare.com/ajax/libs/select2-bootstrap-5-theme/1.3.0/select2-bootstrap-5-theme.css
